Linear Regression
…
## Warning: Missing column names filled in: 'X1' [1]

## Parsed with column specification:
## cols(
##   X1 = col_double(),
##   TV = col_double(),
##   radio = col_double(),
##   newspaper = col_double(),
##   sales = col_double()
## )

## # A tibble: 200 x 4
##       TV radio newspaper sales
##    <dbl> <dbl>     <dbl> <dbl>
##  1 230.   37.8      69.2  22.1
##  2  44.5  39.3      45.1  10.4
##  3  17.2  45.9      69.3   9.3
##  4 152.   41.3      58.5  18.5
##  5 181.   10.8      58.4  12.9
##  6   8.7  48.9      75     7.2
##  7  57.5  32.8      23.5  11.8
##  8 120.   19.6      11.6  13.2
##  9   8.6   2.1       1     4.8
## 10 200.    2.6      21.2  10.6
## #  with 190 more rows
…
So, what does having patterns in residuals mean to your research? Its not just a go-or-stop sign. It tells you about your model and data. Your current model might not be the best way to understand your data if theres so much good stuff left in the data.

In that case, you may want to go back to your theory and hypotheses. Is it really a linear relationship between the predictors and the outcome? You may want to include a quadratic term, for example. A log transformation may better represent the phenomena that youd like to model. Or, is there any important variable that you left out from your model? Other variables you didnt include (e.g., Radio or Newspaper advertising budgets) may play an important role in your model and data. Or, maybe, your data were systematically biased when collecting data. You may want to redesign data collection methods.

Checking residuals is a way to discover new insights in your model and data!

Making Predictions

Often the goal with regression approaches is to make predictions on new data. To assess how well our model will do in this endeavor we need to assess how it does in making predictions against our test data set. This informs us how well our model generalizes to data outside our training set. We can use our model to predict Sales values for our test data by using add_predictions.

(test <- test %>% 
  add_predictions(model1))

## # A tibble: 78 x 5
##       TV radio newspaper sales  pred
##    <dbl> <dbl>     <dbl> <dbl> <dbl>
##  1  44.5  39.3      45.1  10.4  9.00
##  2 152.   41.3      58.5  18.5 14.4 
##  3 181.   10.8      58.4  12.9 15.9 
##  4 120.   19.6      11.6  13.2 12.8 
##  5  66.1   5.8      24.2   8.6 10.1 
##  6  23.8  35.1      65.9   9.2  7.96
##  7 195.   47.7      52.9  22.4 16.6 
##  8 147.   23.9      19.1  14.6 14.2 
##  9 218.   27.7      53.4  18   17.7 
## 10 237.    5.1      23.5  12.5 18.7 
## #  with 68 more rows
…
